{
  "images" : [
    {
      "resizing" : {
        "mode" : "3-part-horizontal",
        "center" : {
          "mode" : "stretch",
          "width" : 289
        },
        "cap-insets" : {
          "right" : 13,
          "left" : 14
        }
      },
      "idiom" : "universal",
      "filename" : "shelfcell_bgr.png",
      "scale" : "1x"
    },
    {
      "resizing" : {
        "mode" : "3-part-horizontal",
        "center" : {
          "mode" : "stretch",
          "width" : 592
        },
        "cap-insets" : {
          "right" : 24,
          "left" : 20
        }
      },
      "idiom" : "universal",
      "filename" : "shelfcell_bgr@2x.png",
      "scale" : "2x"
    },
    {
      "idiom" : "universal",
      "scale" : "3x"
    }
  ],
  "info" : {
    "version" : 1,
    "author" : "xcode"
  }
}